^testVS.ui
C:\Users\Marcin\Desktop\cpp\testVS\testVS\x64\Debug\uic\ui_testVS.h
^testVS.qrc
C:\Users\Marcin\Desktop\cpp\testVS\testVS\x64\Debug\rcc\qrc_testVS.cpp
^testVS.h
C:\Users\Marcin\Desktop\cpp\testVS\testVS\x64\Debug\moc\moc_testVS.cpp
^testVS.ui
C:\Users\Marcin\Desktop\cpp\testVS\testVS\x64\Debug\uic\ui_testVS.h
^testVS.qrc
C:\Users\Marcin\Desktop\cpp\testVS\testVS\x64\Debug\rcc\qrc_testVS.cpp
^testVS.h
C:\Users\Marcin\Desktop\cpp\testVS\testVS\x64\Debug\moc\moc_testVS.cpp
^testVS.ui
C:\Users\Marcin\Desktop\cpp\testVS\testVS\x64\Debug\uic\ui_testVS.h
^testVS.qrc
C:\Users\Marcin\Desktop\cpp\testVS\testVS\x64\Debug\rcc\qrc_testVS.cpp
^testVS.h
C:\Users\Marcin\Desktop\cpp\testVS\testVS\x64\Debug\moc\moc_testVS.cpp
^testVS.ui
C:\Users\Marcin\Desktop\cpp\testVS\testVS\x64\Debug\uic\ui_testVS.h
^testVS.qrc
C:\Users\Marcin\Desktop\cpp\testVS\testVS\x64\Debug\rcc\qrc_testVS.cpp
^testVS.h
C:\Users\Marcin\Desktop\cpp\testVS\testVS\x64\Debug\moc\moc_testVS.cpp
^testVS.ui
C:\Users\Marcin\Desktop\cpp\testVS\testVS\x64\Debug\uic\ui_testVS.h
^testVS.qrc
C:\Users\Marcin\Desktop\cpp\testVS\testVS\x64\Debug\rcc\qrc_testVS.cpp
^testVS.h
C:\Users\Marcin\Desktop\cpp\testVS\testVS\x64\Debug\moc\moc_testVS.cpp
^testVS.ui
C:\Users\Marcin\Desktop\cpp\testVS\testVS\x64\Debug\uic\ui_testVS.h
^testVS.qrc
C:\Users\Marcin\Desktop\cpp\testVS\testVS\x64\Debug\rcc\qrc_testVS.cpp
^testVS.h
C:\Users\Marcin\Desktop\cpp\testVS\testVS\x64\Debug\moc\moc_testVS.cpp
^testVS.ui
C:\Users\Marcin\Desktop\cpp\testVS\testVS\x64\Debug\uic\ui_testVS.h
^testVS.qrc
C:\Users\Marcin\Desktop\cpp\testVS\testVS\x64\Debug\rcc\qrc_testVS.cpp
^testVS.h
C:\Users\Marcin\Desktop\cpp\testVS\testVS\x64\Debug\moc\moc_testVS.cpp
^testVS.ui
C:\Users\Marcin\Desktop\cpp\testVS\testVS\x64\Debug\uic\ui_testVS.h
^testVS.qrc
C:\Users\Marcin\Desktop\cpp\testVS\testVS\x64\Debug\rcc\qrc_testVS.cpp
^testVS.h
C:\Users\Marcin\Desktop\cpp\testVS\testVS\x64\Debug\moc\moc_testVS.cpp
^testVS.ui
C:\Users\Marcin\Desktop\cpp\testVS\testVS\x64\Debug\uic\ui_testVS.h
^testVS.qrc
C:\Users\Marcin\Desktop\cpp\testVS\testVS\x64\Debug\rcc\qrc_testVS.cpp
^testVS.h
C:\Users\Marcin\Desktop\cpp\testVS\testVS\x64\Debug\moc\moc_testVS.cpp
^testVS.ui
C:\Users\Marcin\Desktop\cpp\testVS\testVS\x64\Debug\uic\ui_testVS.h
^testVS.qrc
C:\Users\Marcin\Desktop\cpp\testVS\testVS\x64\Debug\rcc\qrc_testVS.cpp
^testVS.h
C:\Users\Marcin\Desktop\cpp\testVS\testVS\x64\Debug\moc\moc_testVS.cpp
^testVS.ui
C:\Users\Marcin\Desktop\cpp\testVS\testVS\x64\Debug\uic\ui_testVS.h
^testVS.qrc
C:\Users\Marcin\Desktop\cpp\testVS\testVS\x64\Debug\rcc\qrc_testVS.cpp
^testVS.h
C:\Users\Marcin\Desktop\cpp\testVS\testVS\x64\Debug\moc\moc_testVS.cpp
^testVS.ui
C:\Users\Marcin\Desktop\cpp\testVS\testVS\x64\Debug\uic\ui_testVS.h
^testVS.qrc
C:\Users\Marcin\Desktop\cpp\testVS\testVS\x64\Debug\rcc\qrc_testVS.cpp
^testVS.h
C:\Users\Marcin\Desktop\cpp\testVS\testVS\x64\Debug\moc\moc_testVS.cpp
^testVS.qrc
C:\Users\Marcin\Desktop\cpp\testVS\testVS\x64\Debug\rcc\qrc_testVS.cpp
^testVS.h
C:\Users\Marcin\Desktop\cpp\testVS\testVS\x64\Debug\moc\moc_testVS.cpp
^testVS.ui
C:\Users\Marcin\Desktop\cpp\testVS\testVS\x64\Debug\uic\ui_testVS.h
^testVS.ui
C:\Users\Marcin\Desktop\cpp\testVS\testVS\x64\Debug\uic\ui_testVS.h
^testVS.qrc
C:\Users\Marcin\Desktop\cpp\testVS\testVS\x64\Debug\rcc\qrc_testVS.cpp
^testVS.h
C:\Users\Marcin\Desktop\cpp\testVS\testVS\x64\Debug\moc\moc_testVS.cpp
^testVS.ui
C:\Users\Marcin\Desktop\cpp\testVS\testVS\x64\Debug\uic\ui_testVS.h
^testVS.qrc
C:\Users\Marcin\Desktop\cpp\testVS\testVS\x64\Debug\rcc\qrc_testVS.cpp
^testVS.h
C:\Users\Marcin\Desktop\cpp\testVS\testVS\x64\Debug\moc\moc_testVS.cpp
^testVS.ui
C:\Users\Marcin\Desktop\cpp\testVS\testVS\x64\Debug\uic\ui_testVS.h
^testVS.qrc
C:\Users\Marcin\Desktop\cpp\testVS\testVS\x64\Debug\rcc\qrc_testVS.cpp
^testVS.h
C:\Users\Marcin\Desktop\cpp\testVS\testVS\x64\Debug\moc\moc_testVS.cpp
^testVS.ui
C:\Users\Marcin\Desktop\cpp\testVS\testVS\x64\Debug\uic\ui_testVS.h
^testVS.qrc
C:\Users\Marcin\Desktop\cpp\testVS\testVS\x64\Debug\rcc\qrc_testVS.cpp
^testVS.h
C:\Users\Marcin\Desktop\cpp\testVS\testVS\x64\Debug\moc\moc_testVS.cpp
^testVS.ui
C:\Users\Marcin\Desktop\cpp\testVS\testVS\x64\Debug\uic\ui_testVS.h
^testVS.qrc
C:\Users\Marcin\Desktop\cpp\testVS\testVS\x64\Debug\rcc\qrc_testVS.cpp
^testVS.h
C:\Users\Marcin\Desktop\cpp\testVS\testVS\x64\Debug\moc\moc_testVS.cpp
^testVS.ui
C:\Users\Marcin\Desktop\cpp\testVS\testVS\x64\Debug\uic\ui_testVS.h
^testVS.qrc
C:\Users\Marcin\Desktop\cpp\testVS\testVS\x64\Debug\rcc\qrc_testVS.cpp
^testVS.h
C:\Users\Marcin\Desktop\cpp\testVS\testVS\x64\Debug\moc\moc_testVS.cpp
^testVS.ui
C:\Users\Marcin\Desktop\cpp\testVS\testVS\x64\Debug\uic\ui_testVS.h
^testVS.qrc
C:\Users\Marcin\Desktop\cpp\testVS\testVS\x64\Debug\rcc\qrc_testVS.cpp
^testVS.h
C:\Users\Marcin\Desktop\cpp\testVS\testVS\x64\Debug\moc\moc_testVS.cpp
^testVS.ui
C:\Users\Marcin\Desktop\cpp\testVS\testVS\x64\Debug\uic\ui_testVS.h
^testVS.qrc
C:\Users\Marcin\Desktop\cpp\testVS\testVS\x64\Debug\rcc\qrc_testVS.cpp
^testVS.h
C:\Users\Marcin\Desktop\cpp\testVS\testVS\x64\Debug\moc\moc_testVS.cpp
^testVS.ui
C:\Users\Marcin\Desktop\cpp\testVS\testVS\x64\Debug\uic\ui_testVS.h
^testVS.qrc
C:\Users\Marcin\Desktop\cpp\testVS\testVS\x64\Debug\rcc\qrc_testVS.cpp
^testVS.h
C:\Users\Marcin\Desktop\cpp\testVS\testVS\x64\Debug\moc\moc_testVS.cpp
^testVS.ui
C:\Users\Marcin\Desktop\cpp\testVS\testVS\x64\Debug\uic\ui_testVS.h
^testVS.qrc
C:\Users\Marcin\Desktop\cpp\testVS\testVS\x64\Debug\rcc\qrc_testVS.cpp
^testVS.h
C:\Users\Marcin\Desktop\cpp\testVS\testVS\x64\Debug\moc\moc_testVS.cpp
^testVS.ui
C:\Users\Marcin\Desktop\cpp\testVS\testVS\x64\Debug\uic\ui_testVS.h
^testVS.qrc
C:\Users\Marcin\Desktop\cpp\testVS\testVS\x64\Debug\rcc\qrc_testVS.cpp
^testVS.h
C:\Users\Marcin\Desktop\cpp\testVS\testVS\x64\Debug\moc\moc_testVS.cpp
^testVS.ui
C:\Users\Marcin\Desktop\cpp\testVS\testVS\x64\Debug\uic\ui_testVS.h
^testVS.qrc
C:\Users\Marcin\Desktop\cpp\testVS\testVS\x64\Debug\rcc\qrc_testVS.cpp
^testVS.h
C:\Users\Marcin\Desktop\cpp\testVS\testVS\x64\Debug\moc\moc_testVS.cpp
^testVS.ui
C:\Users\Marcin\Desktop\cpp\testVS\testVS\x64\Debug\uic\ui_testVS.h
^testVS.qrc
C:\Users\Marcin\Desktop\cpp\testVS\testVS\x64\Debug\rcc\qrc_testVS.cpp
^testVS.h
C:\Users\Marcin\Desktop\cpp\testVS\testVS\x64\Debug\moc\moc_testVS.cpp
^testVS.ui
C:\Users\Marcin\Desktop\cpp\testVS\testVS\x64\Debug\uic\ui_testVS.h
^testVS.qrc
C:\Users\Marcin\Desktop\cpp\testVS\testVS\x64\Debug\rcc\qrc_testVS.cpp
^testVS.h
C:\Users\Marcin\Desktop\cpp\testVS\testVS\x64\Debug\moc\moc_testVS.cpp
^testVS.ui
C:\Users\Marcin\Desktop\cpp\testVS\testVS\x64\Debug\uic\ui_testVS.h
^testVS.qrc
C:\Users\Marcin\Desktop\cpp\testVS\testVS\x64\Debug\rcc\qrc_testVS.cpp
^testVS.h
C:\Users\Marcin\Desktop\cpp\testVS\testVS\x64\Debug\moc\moc_testVS.cpp
^testVS.ui
C:\Users\Marcin\Desktop\cpp\testVS\testVS\x64\Debug\uic\ui_testVS.h
^testVS.qrc
C:\Users\Marcin\Desktop\cpp\testVS\testVS\x64\Debug\rcc\qrc_testVS.cpp
^testVS.h
C:\Users\Marcin\Desktop\cpp\testVS\testVS\x64\Debug\moc\moc_testVS.cpp
^testVS.ui
C:\Users\Marcin\Desktop\cpp\testVS\testVS\x64\Debug\uic\ui_testVS.h
^testVS.qrc
C:\Users\Marcin\Desktop\cpp\testVS\testVS\x64\Debug\rcc\qrc_testVS.cpp
^testVS.h
C:\Users\Marcin\Desktop\cpp\testVS\testVS\x64\Debug\moc\moc_testVS.cpp
^testVS.ui
C:\Users\Marcin\Desktop\cpp\testVS\testVS\x64\Debug\uic\ui_testVS.h
^testVS.qrc
C:\Users\Marcin\Desktop\cpp\testVS\testVS\x64\Debug\rcc\qrc_testVS.cpp
^testVS.h
C:\Users\Marcin\Desktop\cpp\testVS\testVS\x64\Debug\moc\moc_testVS.cpp
^testVS.ui
C:\Users\Marcin\Desktop\cpp\testVS\testVS\x64\Debug\uic\ui_testVS.h
^testVS.qrc
C:\Users\Marcin\Desktop\cpp\testVS\testVS\x64\Debug\rcc\qrc_testVS.cpp
^testVS.h
C:\Users\Marcin\Desktop\cpp\testVS\testVS\x64\Debug\moc\moc_testVS.cpp
^testVS.ui
C:\Users\Marcin\Desktop\cpp\testVS\testVS\x64\Debug\uic\ui_testVS.h
^testVS.qrc
C:\Users\Marcin\Desktop\cpp\testVS\testVS\x64\Debug\rcc\qrc_testVS.cpp
^testVS.h
C:\Users\Marcin\Desktop\cpp\testVS\testVS\x64\Debug\moc\moc_testVS.cpp
^testVS.ui
C:\Users\Marcin\Desktop\cpp\testVS\testVS\x64\Debug\uic\ui_testVS.h
^testVS.qrc
C:\Users\Marcin\Desktop\cpp\testVS\testVS\x64\Debug\rcc\qrc_testVS.cpp
^testVS.h
C:\Users\Marcin\Desktop\cpp\testVS\testVS\x64\Debug\moc\moc_testVS.cpp
^testVS.ui
C:\Users\Marcin\Desktop\cpp\testVS\testVS\x64\Debug\uic\ui_testVS.h
^testVS.qrc
C:\Users\Marcin\Desktop\cpp\testVS\testVS\x64\Debug\rcc\qrc_testVS.cpp
^testVS.h
C:\Users\Marcin\Desktop\cpp\testVS\testVS\x64\Debug\moc\moc_testVS.cpp
^testVS.ui
C:\Users\Marcin\Desktop\cpp\testVS\testVS\x64\Debug\uic\ui_testVS.h
^testVS.qrc
C:\Users\Marcin\Desktop\cpp\testVS\testVS\x64\Debug\rcc\qrc_testVS.cpp
^testVS.h
C:\Users\Marcin\Desktop\cpp\testVS\testVS\x64\Debug\moc\moc_testVS.cpp
^testVS.ui
C:\Users\Marcin\Desktop\cpp\testVS\testVS\x64\Debug\uic\ui_testVS.h
^testVS.qrc
C:\Users\Marcin\Desktop\cpp\testVS\testVS\x64\Debug\rcc\qrc_testVS.cpp
^testVS.h
C:\Users\Marcin\Desktop\cpp\testVS\testVS\x64\Debug\moc\moc_testVS.cpp
^testVS.ui
C:\Users\Marcin\Desktop\cpp\testVS\testVS\x64\Debug\uic\ui_testVS.h
^testVS.qrc
C:\Users\Marcin\Desktop\cpp\testVS\testVS\x64\Debug\rcc\qrc_testVS.cpp
^testVS.h
C:\Users\Marcin\Desktop\cpp\testVS\testVS\x64\Debug\moc\moc_testVS.cpp
^testVS.ui
C:\Users\Marcin\Desktop\cpp\testVS\testVS\x64\Debug\uic\ui_testVS.h
^testVS.qrc
C:\Users\Marcin\Desktop\cpp\testVS\testVS\x64\Debug\rcc\qrc_testVS.cpp
^testVS.h
C:\Users\Marcin\Desktop\cpp\testVS\testVS\x64\Debug\moc\moc_testVS.cpp
^testVS.ui
C:\Users\Marcin\Desktop\cpp\testVS\testVS\x64\Debug\uic\ui_testVS.h
^testVS.qrc
C:\Users\Marcin\Desktop\cpp\testVS\testVS\x64\Debug\rcc\qrc_testVS.cpp
^testVS.h
C:\Users\Marcin\Desktop\cpp\testVS\testVS\x64\Debug\moc\moc_testVS.cpp
^testVS.ui
C:\Users\Marcin\Desktop\cpp\testVS\testVS\x64\Debug\uic\ui_testVS.h
^testVS.qrc
C:\Users\Marcin\Desktop\cpp\testVS\testVS\x64\Debug\rcc\qrc_testVS.cpp
^testVS.h
C:\Users\Marcin\Desktop\cpp\testVS\testVS\x64\Debug\moc\moc_testVS.cpp
^testVS.ui
C:\Users\Marcin\Desktop\cpp\testVS\testVS\x64\Debug\uic\ui_testVS.h
^testVS.qrc
C:\Users\Marcin\Desktop\cpp\testVS\testVS\x64\Debug\rcc\qrc_testVS.cpp
^testVS.h
C:\Users\Marcin\Desktop\cpp\testVS\testVS\x64\Debug\moc\moc_testVS.cpp
^testVS.ui
C:\Users\Marcin\Desktop\cpp\testVS\testVS\x64\Debug\uic\ui_testVS.h
^testVS.qrc
C:\Users\Marcin\Desktop\cpp\testVS\testVS\x64\Debug\rcc\qrc_testVS.cpp
^testVS.h
C:\Users\Marcin\Desktop\cpp\testVS\testVS\x64\Debug\moc\moc_testVS.cpp
^testVS.ui
C:\Users\Marcin\Desktop\cpp\testVS\testVS\x64\Debug\uic\ui_testVS.h
^testVS.qrc
C:\Users\Marcin\Desktop\cpp\testVS\testVS\x64\Debug\rcc\qrc_testVS.cpp
^testVS.h
C:\Users\Marcin\Desktop\cpp\testVS\testVS\x64\Debug\moc\moc_testVS.cpp
^testVS.ui
C:\Users\Marcin\Desktop\cpp\testVS\testVS\x64\Debug\uic\ui_testVS.h
^testVS.qrc
C:\Users\Marcin\Desktop\cpp\testVS\testVS\x64\Debug\rcc\qrc_testVS.cpp
^testVS.h
C:\Users\Marcin\Desktop\cpp\testVS\testVS\x64\Debug\moc\moc_testVS.cpp
^testVS.ui
C:\Users\Marcin\Desktop\cpp\testVS\testVS\x64\Debug\uic\ui_testVS.h
^testVS.qrc
C:\Users\Marcin\Desktop\cpp\testVS\testVS\x64\Debug\rcc\qrc_testVS.cpp
^testVS.h
C:\Users\Marcin\Desktop\cpp\testVS\testVS\x64\Debug\moc\moc_testVS.cpp
^testVS.ui
C:\Users\Marcin\Desktop\cpp\testVS\testVS\x64\Debug\uic\ui_testVS.h
^testVS.qrc
C:\Users\Marcin\Desktop\cpp\testVS\testVS\x64\Debug\rcc\qrc_testVS.cpp
^testVS.h
C:\Users\Marcin\Desktop\cpp\testVS\testVS\x64\Debug\moc\moc_testVS.cpp
^testVS.ui
C:\Users\Marcin\Desktop\cpp\testVS\testVS\x64\Debug\uic\ui_testVS.h
^testVS.qrc
C:\Users\Marcin\Desktop\cpp\testVS\testVS\x64\Debug\rcc\qrc_testVS.cpp
^testVS.h
C:\Users\Marcin\Desktop\cpp\testVS\testVS\x64\Debug\moc\moc_testVS.cpp
^testVS.ui
C:\Users\Marcin\Desktop\cpp\testVS\testVS\x64\Debug\uic\ui_testVS.h
^testVS.qrc
C:\Users\Marcin\Desktop\cpp\testVS\testVS\x64\Debug\rcc\qrc_testVS.cpp
^testVS.h
C:\Users\Marcin\Desktop\cpp\testVS\testVS\x64\Debug\moc\moc_testVS.cpp
^testVS.ui
C:\Users\Marcin\Desktop\cpp\testVS\testVS\x64\Debug\uic\ui_testVS.h
^testVS.qrc
C:\Users\Marcin\Desktop\cpp\testVS\testVS\x64\Debug\rcc\qrc_testVS.cpp
^testVS.h
C:\Users\Marcin\Desktop\cpp\testVS\testVS\x64\Debug\moc\moc_testVS.cpp
^testVS.ui
C:\Users\Marcin\Desktop\cpp\testVS\testVS\x64\Debug\uic\ui_testVS.h
^testVS.qrc
C:\Users\Marcin\Desktop\cpp\testVS\testVS\x64\Debug\rcc\qrc_testVS.cpp
^testVS.h
C:\Users\Marcin\Desktop\cpp\testVS\testVS\x64\Debug\moc\moc_testVS.cpp
^testVS.ui
C:\Users\Marcin\Desktop\cpp\testVS\testVS\x64\Debug\uic\ui_testVS.h
^testVS.qrc
C:\Users\Marcin\Desktop\cpp\testVS\testVS\x64\Debug\rcc\qrc_testVS.cpp
^testVS.h
C:\Users\Marcin\Desktop\cpp\testVS\testVS\x64\Debug\moc\moc_testVS.cpp
^testVS.ui
C:\Users\Marcin\Desktop\cpp\testVS\testVS\x64\Debug\uic\ui_testVS.h
^testVS.qrc
C:\Users\Marcin\Desktop\cpp\testVS\testVS\x64\Debug\rcc\qrc_testVS.cpp
^testVS.h
C:\Users\Marcin\Desktop\cpp\testVS\testVS\x64\Debug\moc\moc_testVS.cpp
^testVS.ui
C:\Users\Marcin\Desktop\cpp\testVS\testVS\x64\Debug\uic\ui_testVS.h
^testVS.qrc
C:\Users\Marcin\Desktop\cpp\testVS\testVS\x64\Debug\rcc\qrc_testVS.cpp
^testVS.h
C:\Users\Marcin\Desktop\cpp\testVS\testVS\x64\Debug\moc\moc_testVS.cpp
^testVS.ui
C:\Users\Marcin\Desktop\cpp\testVS\testVS\x64\Debug\uic\ui_testVS.h
^testVS.qrc
C:\Users\Marcin\Desktop\cpp\testVS\testVS\x64\Debug\rcc\qrc_testVS.cpp
^testVS.h
C:\Users\Marcin\Desktop\cpp\testVS\testVS\x64\Debug\moc\moc_testVS.cpp
^testVS.ui
C:\Users\Marcin\Desktop\cpp\testVS\testVS\x64\Debug\uic\ui_testVS.h
^testVS.qrc
C:\Users\Marcin\Desktop\cpp\testVS\testVS\x64\Debug\rcc\qrc_testVS.cpp
^testVS.h
C:\Users\Marcin\Desktop\cpp\testVS\testVS\x64\Debug\moc\moc_testVS.cpp
^testVS.ui
C:\Users\Marcin\Desktop\cpp\testVS\testVS\x64\Debug\uic\ui_testVS.h
^testVS.qrc
C:\Users\Marcin\Desktop\cpp\testVS\testVS\x64\Debug\rcc\qrc_testVS.cpp
^testVS.h
C:\Users\Marcin\Desktop\cpp\testVS\testVS\x64\Debug\moc\moc_testVS.cpp
^testVS.ui
C:\Users\Marcin\Desktop\cpp\testVS\testVS\x64\Debug\uic\ui_testVS.h
^testVS.qrc
C:\Users\Marcin\Desktop\cpp\testVS\testVS\x64\Debug\rcc\qrc_testVS.cpp
^testVS.h
C:\Users\Marcin\Desktop\cpp\testVS\testVS\x64\Debug\moc\moc_testVS.cpp
^testVS.ui
C:\Users\Marcin\Desktop\cpp\testVS\testVS\x64\Debug\uic\ui_testVS.h
^testVS.qrc
C:\Users\Marcin\Desktop\cpp\testVS\testVS\x64\Debug\rcc\qrc_testVS.cpp
^testVS.h
C:\Users\Marcin\Desktop\cpp\testVS\testVS\x64\Debug\moc\moc_testVS.cpp
^testVS.ui
C:\Users\Marcin\Desktop\cpp\testVS\testVS\x64\Debug\uic\ui_testVS.h
^testVS.qrc
C:\Users\Marcin\Desktop\cpp\testVS\testVS\x64\Debug\rcc\qrc_testVS.cpp
^testVS.h
C:\Users\Marcin\Desktop\cpp\testVS\testVS\x64\Debug\moc\moc_testVS.cpp
^testVS.ui
C:\Users\Marcin\Desktop\cpp\testVS\testVS\x64\Debug\uic\ui_testVS.h
^testVS.qrc
C:\Users\Marcin\Desktop\cpp\testVS\testVS\x64\Debug\rcc\qrc_testVS.cpp
^testVS.h
C:\Users\Marcin\Desktop\cpp\testVS\testVS\x64\Debug\moc\moc_testVS.cpp
^testVS.ui
C:\Users\Marcin\Desktop\cpp\testVS\testVS\x64\Debug\uic\ui_testVS.h
^testVS.qrc
C:\Users\Marcin\Desktop\cpp\testVS\testVS\x64\Debug\rcc\qrc_testVS.cpp
^testVS.h
C:\Users\Marcin\Desktop\cpp\testVS\testVS\x64\Debug\moc\moc_testVS.cpp
^testVS.qrc
C:\Users\Marcin\Desktop\cpp\testVS\testVS\x64\Debug\rcc\qrc_testVS.cpp
^testVS.h
C:\Users\Marcin\Desktop\cpp\testVS\testVS\x64\Debug\moc\moc_testVS.cpp
^testVS.ui
C:\Users\Marcin\Desktop\cpp\testVS\testVS\x64\Debug\uic\ui_testVS.h
^testVS.qrc
C:\Users\Marcin\Desktop\cpp\testVS\testVS\x64\Debug\rcc\qrc_testVS.cpp
^testVS.h
C:\Users\Marcin\Desktop\cpp\testVS\testVS\x64\Debug\moc\moc_testVS.cpp
^testVS.ui
C:\Users\Marcin\Desktop\cpp\testVS\testVS\x64\Debug\uic\ui_testVS.h
^testVS.qrc
C:\Users\Marcin\Desktop\cpp\testVS\testVS\x64\Debug\rcc\qrc_testVS.cpp
^testVS.h
C:\Users\Marcin\Desktop\cpp\testVS\testVS\x64\Debug\moc\moc_testVS.cpp
^testVS.ui
C:\Users\Marcin\Desktop\cpp\testVS\testVS\x64\Debug\uic\ui_testVS.h
^testVS.qrc
C:\Users\Marcin\Desktop\cpp\testVS\testVS\x64\Debug\rcc\qrc_testVS.cpp
^testVS.h
C:\Users\Marcin\Desktop\cpp\testVS\testVS\x64\Debug\moc\moc_testVS.cpp
^testVS.ui
C:\Users\Marcin\Desktop\cpp\testVS\testVS\x64\Debug\uic\ui_testVS.h
^testVS.qrc
C:\Users\Marcin\Desktop\cpp\testVS\testVS\x64\Debug\rcc\qrc_testVS.cpp
^testVS.h
C:\Users\Marcin\Desktop\cpp\testVS\testVS\x64\Debug\moc\moc_testVS.cpp
^testVS.ui
C:\Users\Marcin\Desktop\cpp\testVS\testVS\x64\Debug\uic\ui_testVS.h
^testVS.qrc
C:\Users\Marcin\Desktop\cpp\testVS\testVS\x64\Debug\rcc\qrc_testVS.cpp
^testVS.h
C:\Users\Marcin\Desktop\cpp\testVS\testVS\x64\Debug\moc\moc_testVS.cpp
^testVS.ui
C:\Users\Marcin\Desktop\cpp\testVS\testVS\x64\Debug\uic\ui_testVS.h
^testVS.qrc
C:\Users\Marcin\Desktop\cpp\testVS\testVS\x64\Debug\rcc\qrc_testVS.cpp
^testVS.h
C:\Users\Marcin\Desktop\cpp\testVS\testVS\x64\Debug\moc\moc_testVS.cpp
^testVS.ui
C:\Users\Marcin\Desktop\cpp\testVS\testVS\x64\Debug\uic\ui_testVS.h
^testVS.qrc
C:\Users\Marcin\Desktop\cpp\testVS\testVS\x64\Debug\rcc\qrc_testVS.cpp
^testVS.h
C:\Users\Marcin\Desktop\cpp\testVS\testVS\x64\Debug\moc\moc_testVS.cpp
^testVS.ui
C:\Users\Marcin\Desktop\cpp\testVS\testVS\x64\Debug\uic\ui_testVS.h
^testVS.ui
C:\Users\Marcin\Desktop\cpp\testVS\testVS\x64\Debug\uic\ui_testVS.h
^testVS.qrc
C:\Users\Marcin\Desktop\cpp\testVS\testVS\x64\Debug\rcc\qrc_testVS.cpp
^testVS.h
C:\Users\Marcin\Desktop\cpp\testVS\testVS\x64\Debug\moc\moc_testVS.cpp
^testVS.ui
C:\Users\Marcin\Desktop\cpp\testVS\testVS\x64\Debug\uic\ui_testVS.h
^testVS.qrc
C:\Users\Marcin\Desktop\cpp\testVS\testVS\x64\Debug\rcc\qrc_testVS.cpp
^testVS.h
C:\Users\Marcin\Desktop\cpp\testVS\testVS\x64\Debug\moc\moc_testVS.cpp
^testVS.qrc
C:\Users\Marcin\Desktop\cpp\testVS\testVS\x64\Debug\rcc\qrc_testVS.cpp
^testVS.h
C:\Users\Marcin\Desktop\cpp\testVS\testVS\x64\Debug\moc\moc_testVS.cpp
^testVS.ui
C:\Users\Marcin\Desktop\cpp\testVS\testVS\x64\Debug\uic\ui_testVS.h
^testVS.qrc
C:\Users\Marcin\Desktop\cpp\testVS\testVS\x64\Debug\rcc\qrc_testVS.cpp
^testVS.h
C:\Users\Marcin\Desktop\cpp\testVS\testVS\x64\Debug\moc\moc_testVS.cpp
^testVS.ui
C:\Users\Marcin\Desktop\cpp\testVS\testVS\x64\Debug\uic\ui_testVS.h
^testVS.ui
C:\Users\Marcin\Desktop\cpp\testVS\testVS\x64\Debug\uic\ui_testVS.h
^testVS.qrc
C:\Users\Marcin\Desktop\cpp\testVS\testVS\x64\Debug\rcc\qrc_testVS.cpp
^testVS.h
C:\Users\Marcin\Desktop\cpp\testVS\testVS\x64\Debug\moc\moc_testVS.cpp
^testVS.ui
C:\Users\Marcin\Desktop\cpp\testVS\testVS\x64\Debug\uic\ui_testVS.h
^testVS.qrc
C:\Users\Marcin\Desktop\cpp\testVS\testVS\x64\Debug\rcc\qrc_testVS.cpp
^testVS.h
C:\Users\Marcin\Desktop\cpp\testVS\testVS\x64\Debug\moc\moc_testVS.cpp
^testVS.ui
C:\Users\Marcin\Desktop\cpp\testVS\testVS\x64\Debug\uic\ui_testVS.h
^testVS.qrc
C:\Users\Marcin\Desktop\cpp\testVS\testVS\x64\Debug\rcc\qrc_testVS.cpp
^testVS.h
C:\Users\Marcin\Desktop\cpp\testVS\testVS\x64\Debug\moc\moc_testVS.cpp
^testVS.ui
C:\Users\Marcin\Desktop\cpp\testVS\testVS\x64\Debug\uic\ui_testVS.h
^testVS.qrc
C:\Users\Marcin\Desktop\cpp\testVS\testVS\x64\Debug\rcc\qrc_testVS.cpp
^testVS.h
C:\Users\Marcin\Desktop\cpp\testVS\testVS\x64\Debug\moc\moc_testVS.cpp
^testVS.ui
C:\Users\Marcin\Desktop\cpp\testVS\testVS\x64\Debug\uic\ui_testVS.h
^testVS.qrc
C:\Users\Marcin\Desktop\cpp\testVS\testVS\x64\Debug\rcc\qrc_testVS.cpp
^testVS.h
C:\Users\Marcin\Desktop\cpp\testVS\testVS\x64\Debug\moc\moc_testVS.cpp
^testVS.ui
C:\Users\Marcin\Desktop\cpp\testVS\testVS\x64\Debug\uic\ui_testVS.h
^testVS.qrc
C:\Users\Marcin\Desktop\cpp\testVS\testVS\x64\Debug\rcc\qrc_testVS.cpp
^testVS.h
C:\Users\Marcin\Desktop\cpp\testVS\testVS\x64\Debug\moc\moc_testVS.cpp
^testVS.ui
C:\Users\Marcin\Desktop\cpp\testVS\testVS\x64\Debug\uic\ui_testVS.h
^testVS.qrc
C:\Users\Marcin\Desktop\cpp\testVS\testVS\x64\Debug\rcc\qrc_testVS.cpp
^testVS.h
C:\Users\Marcin\Desktop\cpp\testVS\testVS\x64\Debug\moc\moc_testVS.cpp
^testVS.ui
C:\Users\Marcin\Desktop\cpp\testVS\testVS\x64\Debug\uic\ui_testVS.h
^testVS.qrc
C:\Users\Marcin\Desktop\cpp\testVS\testVS\x64\Debug\rcc\qrc_testVS.cpp
^testVS.h
C:\Users\Marcin\Desktop\cpp\testVS\testVS\x64\Debug\moc\moc_testVS.cpp
^testVS.ui
C:\Users\Marcin\Desktop\cpp\testVS\testVS\x64\Debug\uic\ui_testVS.h
^testVS.qrc
C:\Users\Marcin\Desktop\cpp\testVS\testVS\x64\Debug\rcc\qrc_testVS.cpp
^testVS.h
C:\Users\Marcin\Desktop\cpp\testVS\testVS\x64\Debug\moc\moc_testVS.cpp
^testVS.ui
C:\Users\Marcin\Desktop\cpp\testVS\testVS\x64\Debug\uic\ui_testVS.h
^testVS.qrc
C:\Users\Marcin\Desktop\cpp\testVS\testVS\x64\Debug\rcc\qrc_testVS.cpp
^testVS.h
C:\Users\Marcin\Desktop\cpp\testVS\testVS\x64\Debug\moc\moc_testVS.cpp
^testVS.ui
C:\Users\Marcin\Desktop\cpp\testVS\testVS\x64\Debug\uic\ui_testVS.h
^testVS.qrc
C:\Users\Marcin\Desktop\cpp\testVS\testVS\x64\Debug\rcc\qrc_testVS.cpp
^testVS.h
C:\Users\Marcin\Desktop\cpp\testVS\testVS\x64\Debug\moc\moc_testVS.cpp
^testVS.ui
C:\Users\Marcin\Desktop\cpp\testVS\testVS\x64\Debug\uic\ui_testVS.h
^testVS.qrc
C:\Users\Marcin\Desktop\cpp\testVS\testVS\x64\Debug\rcc\qrc_testVS.cpp
^testVS.h
C:\Users\Marcin\Desktop\cpp\testVS\testVS\x64\Debug\moc\moc_testVS.cpp
^testVS.ui
C:\Users\Marcin\Desktop\cpp\testVS\testVS\x64\Debug\uic\ui_testVS.h
^testVS.qrc
C:\Users\Marcin\Desktop\cpp\testVS\testVS\x64\Debug\rcc\qrc_testVS.cpp
^testVS.h
C:\Users\Marcin\Desktop\cpp\testVS\testVS\x64\Debug\moc\moc_testVS.cpp
^testVS.ui
C:\Users\Marcin\Desktop\cpp\testVS\testVS\x64\Debug\uic\ui_testVS.h
^testVS.qrc
C:\Users\Marcin\Desktop\cpp\testVS\testVS\x64\Debug\rcc\qrc_testVS.cpp
^testVS.h
C:\Users\Marcin\Desktop\cpp\testVS\testVS\x64\Debug\moc\moc_testVS.cpp
^testVS.ui
C:\Users\Marcin\Desktop\cpp\testVS\testVS\x64\Debug\uic\ui_testVS.h
^testVS.qrc
C:\Users\Marcin\Desktop\cpp\testVS\testVS\x64\Debug\rcc\qrc_testVS.cpp
^testVS.h
C:\Users\Marcin\Desktop\cpp\testVS\testVS\x64\Debug\moc\moc_testVS.cpp
^testVS.ui
C:\Users\Marcin\Desktop\cpp\testVS\testVS\x64\Debug\uic\ui_testVS.h
^testVS.qrc
C:\Users\Marcin\Desktop\cpp\testVS\testVS\x64\Debug\rcc\qrc_testVS.cpp
^testVS.h
C:\Users\Marcin\Desktop\cpp\testVS\testVS\x64\Debug\moc\moc_testVS.cpp
^testVS.ui
C:\Users\Marcin\Desktop\cpp\testVS\testVS\x64\Debug\uic\ui_testVS.h
^testVS.qrc
C:\Users\Marcin\Desktop\cpp\testVS\testVS\x64\Debug\rcc\qrc_testVS.cpp
^testVS.h
C:\Users\Marcin\Desktop\cpp\testVS\testVS\x64\Debug\moc\moc_testVS.cpp
^testVS.ui
C:\Users\Marcin\Desktop\cpp\testVS\testVS\x64\Debug\uic\ui_testVS.h
^testVS.qrc
C:\Users\Marcin\Desktop\cpp\testVS\testVS\x64\Debug\rcc\qrc_testVS.cpp
^testVS.h
C:\Users\Marcin\Desktop\cpp\testVS\testVS\x64\Debug\moc\moc_testVS.cpp
^testVS.ui
C:\Users\Marcin\Desktop\cpp\testVS\testVS\x64\Debug\uic\ui_testVS.h
^testVS.qrc
C:\Users\Marcin\Desktop\cpp\testVS\testVS\x64\Debug\rcc\qrc_testVS.cpp
^testVS.h
C:\Users\Marcin\Desktop\cpp\testVS\testVS\x64\Debug\moc\moc_testVS.cpp
^testVS.ui
C:\Users\Marcin\Desktop\cpp\testVS\testVS\x64\Debug\uic\ui_testVS.h
^testVS.qrc
C:\Users\Marcin\Desktop\cpp\testVS\testVS\x64\Debug\rcc\qrc_testVS.cpp
^testVS.h
C:\Users\Marcin\Desktop\cpp\testVS\testVS\x64\Debug\moc\moc_testVS.cpp
^testVS.ui
C:\Users\Marcin\Desktop\cpp\testVS\testVS\x64\Debug\uic\ui_testVS.h
^testVS.qrc
C:\Users\Marcin\Desktop\cpp\testVS\testVS\x64\Debug\rcc\qrc_testVS.cpp
^testVS.h
C:\Users\Marcin\Desktop\cpp\testVS\testVS\x64\Debug\moc\moc_testVS.cpp
^testVS.ui
C:\Users\Marcin\Desktop\cpp\testVS\testVS\x64\Debug\uic\ui_testVS.h
^testVS.qrc
C:\Users\Marcin\Desktop\cpp\testVS\testVS\x64\Debug\rcc\qrc_testVS.cpp
^testVS.h
C:\Users\Marcin\Desktop\cpp\testVS\testVS\x64\Debug\moc\moc_testVS.cpp
^testVS.ui
C:\Users\Marcin\Desktop\cpp\testVS\testVS\x64\Debug\uic\ui_testVS.h
^testVS.qrc
C:\Users\Marcin\Desktop\cpp\testVS\testVS\x64\Debug\rcc\qrc_testVS.cpp
^testVS.h
C:\Users\Marcin\Desktop\cpp\testVS\testVS\x64\Debug\moc\moc_testVS.cpp
^testVS.ui
C:\Users\Marcin\Desktop\cpp\testVS\testVS\x64\Debug\uic\ui_testVS.h
^testVS.qrc
C:\Users\Marcin\Desktop\cpp\testVS\testVS\x64\Debug\rcc\qrc_testVS.cpp
^testVS.h
C:\Users\Marcin\Desktop\cpp\testVS\testVS\x64\Debug\moc\moc_testVS.cpp
^testVS.ui
C:\Users\Marcin\Desktop\cpp\testVS\testVS\x64\Debug\uic\ui_testVS.h
^testVS.qrc
C:\Users\Marcin\Desktop\cpp\testVS\testVS\x64\Debug\rcc\qrc_testVS.cpp
^testVS.h
C:\Users\Marcin\Desktop\cpp\testVS\testVS\x64\Debug\moc\moc_testVS.cpp
^testVS.qrc
C:\Users\Marcin\Desktop\cpp\testVS\testVS\x64\Debug\rcc\qrc_testVS.cpp
^testVS.h
C:\Users\Marcin\Desktop\cpp\testVS\testVS\x64\Debug\moc\moc_testVS.cpp
^testVS.ui
C:\Users\Marcin\Desktop\cpp\testVS\testVS\x64\Debug\uic\ui_testVS.h
^testVS.ui
C:\Users\Marcin\Desktop\cpp\testVS\testVS\x64\Debug\uic\ui_testVS.h
^testVS.qrc
C:\Users\Marcin\Desktop\cpp\testVS\testVS\x64\Debug\rcc\qrc_testVS.cpp
^testVS.h
C:\Users\Marcin\Desktop\cpp\testVS\testVS\x64\Debug\moc\moc_testVS.cpp
^testVS.ui
C:\Users\Marcin\Desktop\cpp\testVS\testVS\x64\Debug\uic\ui_testVS.h
^testVS.qrc
C:\Users\Marcin\Desktop\cpp\testVS\testVS\x64\Debug\rcc\qrc_testVS.cpp
^testVS.h
C:\Users\Marcin\Desktop\cpp\testVS\testVS\x64\Debug\moc\moc_testVS.cpp
^testVS.ui
C:\Users\Marcin\Desktop\cpp\testVS\testVS\x64\Debug\uic\ui_testVS.h
^testVS.qrc
C:\Users\Marcin\Desktop\cpp\testVS\testVS\x64\Debug\rcc\qrc_testVS.cpp
^testVS.h
C:\Users\Marcin\Desktop\cpp\testVS\testVS\x64\Debug\moc\moc_testVS.cpp
^testVS.ui
C:\Users\Marcin\Desktop\cpp\testVS\testVS\x64\Debug\uic\ui_testVS.h
^testVS.qrc
C:\Users\Marcin\Desktop\cpp\testVS\testVS\x64\Debug\rcc\qrc_testVS.cpp
^testVS.h
C:\Users\Marcin\Desktop\cpp\testVS\testVS\x64\Debug\moc\moc_testVS.cpp
^testVS.ui
C:\Users\Marcin\Desktop\cpp\testVS\testVS\x64\Debug\uic\ui_testVS.h
^testVS.qrc
C:\Users\Marcin\Desktop\cpp\testVS\testVS\x64\Debug\rcc\qrc_testVS.cpp
^testVS.h
C:\Users\Marcin\Desktop\cpp\testVS\testVS\x64\Debug\moc\moc_testVS.cpp
^testVS.ui
C:\Users\Marcin\Desktop\cpp\testVS\testVS\x64\Debug\uic\ui_testVS.h
^testVS.qrc
C:\Users\Marcin\Desktop\cpp\testVS\testVS\x64\Debug\rcc\qrc_testVS.cpp
^testVS.h
C:\Users\Marcin\Desktop\cpp\testVS\testVS\x64\Debug\moc\moc_testVS.cpp
^testVS.ui
C:\Users\Marcin\Desktop\cpp\testVS\testVS\x64\Debug\uic\ui_testVS.h
^testVS.qrc
C:\Users\Marcin\Desktop\cpp\testVS\testVS\x64\Debug\rcc\qrc_testVS.cpp
^testVS.h
C:\Users\Marcin\Desktop\cpp\testVS\testVS\x64\Debug\moc\moc_testVS.cpp
^testVS.ui
C:\Users\Marcin\Desktop\cpp\testVS\testVS\x64\Debug\uic\ui_testVS.h
^testVS.qrc
C:\Users\Marcin\Desktop\cpp\testVS\testVS\x64\Debug\rcc\qrc_testVS.cpp
^testVS.h
C:\Users\Marcin\Desktop\cpp\testVS\testVS\x64\Debug\moc\moc_testVS.cpp
^testVS.ui
C:\Users\Marcin\Desktop\cpp\testVS\testVS\x64\Debug\uic\ui_testVS.h
^testVS.qrc
C:\Users\Marcin\Desktop\cpp\testVS\testVS\x64\Debug\rcc\qrc_testVS.cpp
^testVS.h
C:\Users\Marcin\Desktop\cpp\testVS\testVS\x64\Debug\moc\moc_testVS.cpp
^testVS.ui
C:\Users\Marcin\Desktop\cpp\testVS\testVS\x64\Debug\uic\ui_testVS.h
^testVS.qrc
C:\Users\Marcin\Desktop\cpp\testVS\testVS\x64\Debug\rcc\qrc_testVS.cpp
^testVS.h
C:\Users\Marcin\Desktop\cpp\testVS\testVS\x64\Debug\moc\moc_testVS.cpp
^testVS.ui
C:\Users\Marcin\Desktop\cpp\testVS\testVS\x64\Debug\uic\ui_testVS.h
^testVS.qrc
C:\Users\Marcin\Desktop\cpp\testVS\testVS\x64\Debug\rcc\qrc_testVS.cpp
^testVS.h
C:\Users\Marcin\Desktop\cpp\testVS\testVS\x64\Debug\moc\moc_testVS.cpp
^testVS.ui
C:\Users\Marcin\Desktop\cpp\testVS\testVS\x64\Debug\uic\ui_testVS.h
^testVS.qrc
C:\Users\Marcin\Desktop\cpp\testVS\testVS\x64\Debug\rcc\qrc_testVS.cpp
^testVS.h
C:\Users\Marcin\Desktop\cpp\testVS\testVS\x64\Debug\moc\moc_testVS.cpp
^testVS.ui
C:\Users\Marcin\Desktop\cpp\testVS\testVS\x64\Debug\uic\ui_testVS.h
^testVS.qrc
C:\Users\Marcin\Desktop\cpp\testVS\testVS\x64\Debug\rcc\qrc_testVS.cpp
^testVS.h
C:\Users\Marcin\Desktop\cpp\testVS\testVS\x64\Debug\moc\moc_testVS.cpp
^testVS.ui
C:\Users\Marcin\Desktop\cpp\testVS\testVS\x64\Debug\uic\ui_testVS.h
^testVS.qrc
C:\Users\Marcin\Desktop\cpp\testVS\testVS\x64\Debug\rcc\qrc_testVS.cpp
^testVS.h
C:\Users\Marcin\Desktop\cpp\testVS\testVS\x64\Debug\moc\moc_testVS.cpp
^testVS.ui
C:\Users\Marcin\Desktop\cpp\testVS\testVS\x64\Debug\uic\ui_testVS.h
^testVS.qrc
C:\Users\Marcin\Desktop\cpp\testVS\testVS\x64\Debug\rcc\qrc_testVS.cpp
^testVS.h
C:\Users\Marcin\Desktop\cpp\testVS\testVS\x64\Debug\moc\moc_testVS.cpp
^testVS.ui
C:\Users\Marcin\Desktop\cpp\testVS\testVS\x64\Debug\uic\ui_testVS.h
^testVS.qrc
C:\Users\Marcin\Desktop\cpp\testVS\testVS\x64\Debug\rcc\qrc_testVS.cpp
^testVS.h
C:\Users\Marcin\Desktop\cpp\testVS\testVS\x64\Debug\moc\moc_testVS.cpp
^testVS.ui
C:\Users\Marcin\Desktop\cpp\testVS\testVS\x64\Debug\uic\ui_testVS.h
^testVS.qrc
C:\Users\Marcin\Desktop\cpp\testVS\testVS\x64\Debug\rcc\qrc_testVS.cpp
^testVS.h
C:\Users\Marcin\Desktop\cpp\testVS\testVS\x64\Debug\moc\moc_testVS.cpp
^testVS.ui
C:\Users\Marcin\Desktop\cpp\testVS\testVS\x64\Debug\uic\ui_testVS.h
^testVS.qrc
C:\Users\Marcin\Desktop\cpp\testVS\testVS\x64\Debug\rcc\qrc_testVS.cpp
^testVS.h
C:\Users\Marcin\Desktop\cpp\testVS\testVS\x64\Debug\moc\moc_testVS.cpp
^testVS.ui
C:\Users\Marcin\Desktop\cpp\testVS\testVS\x64\Debug\uic\ui_testVS.h
^testVS.qrc
C:\Users\Marcin\Desktop\cpp\testVS\testVS\x64\Debug\rcc\qrc_testVS.cpp
^testVS.h
C:\Users\Marcin\Desktop\cpp\testVS\testVS\x64\Debug\moc\moc_testVS.cpp
^testVS.ui
C:\Users\Marcin\Desktop\cpp\testVS\testVS\x64\Debug\uic\ui_testVS.h
^testVS.qrc
C:\Users\Marcin\Desktop\cpp\testVS\testVS\x64\Debug\rcc\qrc_testVS.cpp
^testVS.h
C:\Users\Marcin\Desktop\cpp\testVS\testVS\x64\Debug\moc\moc_testVS.cpp
^testVS.ui
C:\Users\Marcin\Desktop\cpp\testVS\testVS\x64\Debug\uic\ui_testVS.h
^testVS.qrc
C:\Users\Marcin\Desktop\cpp\testVS\testVS\x64\Debug\rcc\qrc_testVS.cpp
^testVS.h
C:\Users\Marcin\Desktop\cpp\testVS\testVS\x64\Debug\moc\moc_testVS.cpp
^testVS.ui
C:\Users\Marcin\Desktop\cpp\testVS\testVS\x64\Debug\uic\ui_testVS.h
^testVS.qrc
C:\Users\Marcin\Desktop\cpp\testVS\testVS\x64\Debug\rcc\qrc_testVS.cpp
^testVS.h
C:\Users\Marcin\Desktop\cpp\testVS\testVS\x64\Debug\moc\moc_testVS.cpp
^testVS.ui
C:\Users\Marcin\Desktop\cpp\testVS\testVS\x64\Debug\uic\ui_testVS.h
^testVS.qrc
C:\Users\Marcin\Desktop\cpp\testVS\testVS\x64\Debug\rcc\qrc_testVS.cpp
^testVS.h
C:\Users\Marcin\Desktop\cpp\testVS\testVS\x64\Debug\moc\moc_testVS.cpp
^testVS.ui
C:\Users\Marcin\Desktop\cpp\testVS\testVS\x64\Debug\uic\ui_testVS.h
^testVS.qrc
C:\Users\Marcin\Desktop\cpp\testVS\testVS\x64\Debug\rcc\qrc_testVS.cpp
^testVS.h
C:\Users\Marcin\Desktop\cpp\testVS\testVS\x64\Debug\moc\moc_testVS.cpp
^testVS.ui
C:\Users\Marcin\Desktop\cpp\testVS\testVS\x64\Debug\uic\ui_testVS.h
^testVS.qrc
C:\Users\Marcin\Desktop\cpp\testVS\testVS\x64\Debug\rcc\qrc_testVS.cpp
^testVS.h
C:\Users\Marcin\Desktop\cpp\testVS\testVS\x64\Debug\moc\moc_testVS.cpp
^testVS.ui
C:\Users\Marcin\Desktop\cpp\testVS\testVS\x64\Debug\uic\ui_testVS.h
^testVS.qrc
C:\Users\Marcin\Desktop\cpp\testVS\testVS\x64\Debug\rcc\qrc_testVS.cpp
^testVS.h
C:\Users\Marcin\Desktop\cpp\testVS\testVS\x64\Debug\moc\moc_testVS.cpp
^testVS.ui
C:\Users\Marcin\Desktop\cpp\testVS\testVS\x64\Debug\uic\ui_testVS.h
^testVS.qrc
C:\Users\Marcin\Desktop\cpp\testVS\testVS\x64\Debug\rcc\qrc_testVS.cpp
^testVS.h
C:\Users\Marcin\Desktop\cpp\testVS\testVS\x64\Debug\moc\moc_testVS.cpp
^testVS.ui
C:\Users\Marcin\Desktop\cpp\testVS\testVS\x64\Debug\uic\ui_testVS.h
^testVS.qrc
C:\Users\Marcin\Desktop\cpp\testVS\testVS\x64\Debug\rcc\qrc_testVS.cpp
^testVS.h
C:\Users\Marcin\Desktop\cpp\testVS\testVS\x64\Debug\moc\moc_testVS.cpp
^testVS.ui
C:\Users\Marcin\Desktop\cpp\testVS\testVS\x64\Debug\uic\ui_testVS.h
^testVS.qrc
C:\Users\Marcin\Desktop\cpp\testVS\testVS\x64\Debug\rcc\qrc_testVS.cpp
^testVS.h
C:\Users\Marcin\Desktop\cpp\testVS\testVS\x64\Debug\moc\moc_testVS.cpp
^testVS.ui
C:\Users\Marcin\Desktop\cpp\testVS\testVS\x64\Debug\uic\ui_testVS.h
^testVS.qrc
C:\Users\Marcin\Desktop\cpp\testVS\testVS\x64\Debug\rcc\qrc_testVS.cpp
^testVS.h
C:\Users\Marcin\Desktop\cpp\testVS\testVS\x64\Debug\moc\moc_testVS.cpp
^testVS.ui
C:\Users\Marcin\Desktop\cpp\testVS\testVS\x64\Debug\uic\ui_testVS.h
^testVS.qrc
C:\Users\Marcin\Desktop\cpp\testVS\testVS\x64\Debug\rcc\qrc_testVS.cpp
^testVS.h
C:\Users\Marcin\Desktop\cpp\testVS\testVS\x64\Debug\moc\moc_testVS.cpp
^testVS.ui
C:\Users\Marcin\Desktop\cpp\testVS\testVS\x64\Debug\uic\ui_testVS.h
^testVS.qrc
C:\Users\Marcin\Desktop\cpp\testVS\testVS\x64\Debug\rcc\qrc_testVS.cpp
^testVS.h
C:\Users\Marcin\Desktop\cpp\testVS\testVS\x64\Debug\moc\moc_testVS.cpp
^testVS.ui
C:\Users\Marcin\Desktop\cpp\testVS\testVS\x64\Debug\uic\ui_testVS.h
^testVS.qrc
C:\Users\Marcin\Desktop\cpp\testVS\testVS\x64\Debug\rcc\qrc_testVS.cpp
^testVS.h
C:\Users\Marcin\Desktop\cpp\testVS\testVS\x64\Debug\moc\moc_testVS.cpp
^testVS.ui
C:\Users\Marcin\Desktop\cpp\testVS\testVS\x64\Debug\uic\ui_testVS.h
^testVS.qrc
C:\Users\Marcin\Desktop\cpp\testVS\testVS\x64\Debug\rcc\qrc_testVS.cpp
^testVS.h
C:\Users\Marcin\Desktop\cpp\testVS\testVS\x64\Debug\moc\moc_testVS.cpp
^testVS.ui
C:\Users\Marcin\Desktop\cpp\testVS\testVS\x64\Debug\uic\ui_testVS.h
^testVS.qrc
C:\Users\Marcin\Desktop\cpp\testVS\testVS\x64\Debug\rcc\qrc_testVS.cpp
^testVS.h
C:\Users\Marcin\Desktop\cpp\testVS\testVS\x64\Debug\moc\moc_testVS.cpp
^testVS.ui
C:\Users\Marcin\Desktop\cpp\testVS\testVS\x64\Debug\uic\ui_testVS.h
^testVS.qrc
C:\Users\Marcin\Desktop\cpp\testVS\testVS\x64\Debug\rcc\qrc_testVS.cpp
^testVS.h
C:\Users\Marcin\Desktop\cpp\testVS\testVS\x64\Debug\moc\moc_testVS.cpp
^testVS.ui
C:\Users\Marcin\Desktop\cpp\testVS\testVS\x64\Debug\uic\ui_testVS.h
^testVS.qrc
C:\Users\Marcin\Desktop\cpp\testVS\testVS\x64\Debug\rcc\qrc_testVS.cpp
^testVS.h
C:\Users\Marcin\Desktop\cpp\testVS\testVS\x64\Debug\moc\moc_testVS.cpp
^testVS.ui
C:\Users\Marcin\Desktop\cpp\testVS\testVS\x64\Debug\uic\ui_testVS.h
^testVS.qrc
C:\Users\Marcin\Desktop\cpp\testVS\testVS\x64\Debug\rcc\qrc_testVS.cpp
^testVS.h
C:\Users\Marcin\Desktop\cpp\testVS\testVS\x64\Debug\moc\moc_testVS.cpp
^testVS.ui
C:\Users\Marcin\Desktop\cpp\testVS\testVS\x64\Debug\uic\ui_testVS.h
^testVS.qrc
C:\Users\Marcin\Desktop\cpp\testVS\testVS\x64\Debug\rcc\qrc_testVS.cpp
^testVS.h
C:\Users\Marcin\Desktop\cpp\testVS\testVS\x64\Debug\moc\moc_testVS.cpp
^testVS.ui
C:\Users\Marcin\Desktop\cpp\testVS\testVS\x64\Debug\uic\ui_testVS.h
^testVS.qrc
C:\Users\Marcin\Desktop\cpp\testVS\testVS\x64\Debug\rcc\qrc_testVS.cpp
^testVS.h
C:\Users\Marcin\Desktop\cpp\testVS\testVS\x64\Debug\moc\moc_testVS.cpp
^testVS.ui
C:\Users\Marcin\Desktop\cpp\testVS\testVS\x64\Debug\uic\ui_testVS.h
^testVS.qrc
C:\Users\Marcin\Desktop\cpp\testVS\testVS\x64\Debug\rcc\qrc_testVS.cpp
^testVS.h
C:\Users\Marcin\Desktop\cpp\testVS\testVS\x64\Debug\moc\moc_testVS.cpp
^testVS.ui
C:\Users\Marcin\Desktop\cpp\testVS\testVS\x64\Debug\uic\ui_testVS.h
^testVS.qrc
C:\Users\Marcin\Desktop\cpp\testVS\testVS\x64\Debug\rcc\qrc_testVS.cpp
^testVS.h
C:\Users\Marcin\Desktop\cpp\testVS\testVS\x64\Debug\moc\moc_testVS.cpp
^testVS.ui
C:\Users\Marcin\Desktop\cpp\testVS\testVS\x64\Debug\uic\ui_testVS.h
^testVS.qrc
C:\Users\Marcin\Desktop\cpp\testVS\testVS\x64\Debug\rcc\qrc_testVS.cpp
^testVS.h
C:\Users\Marcin\Desktop\cpp\testVS\testVS\x64\Debug\moc\moc_testVS.cpp
^testVS.ui
C:\Users\Marcin\Desktop\cpp\testVS\testVS\x64\Debug\uic\ui_testVS.h
^testVS.qrc
C:\Users\Marcin\Desktop\cpp\testVS\testVS\x64\Debug\rcc\qrc_testVS.cpp
^testVS.h
C:\Users\Marcin\Desktop\cpp\testVS\testVS\x64\Debug\moc\moc_testVS.cpp
^testVS.ui
C:\Users\Marcin\Desktop\cpp\testVS\testVS\x64\Debug\uic\ui_testVS.h
^testVS.qrc
C:\Users\Marcin\Desktop\cpp\testVS\testVS\x64\Debug\rcc\qrc_testVS.cpp
^testVS.h
C:\Users\Marcin\Desktop\cpp\testVS\testVS\x64\Debug\moc\moc_testVS.cpp
^testVS.ui
C:\Users\Marcin\Desktop\cpp\testVS\testVS\x64\Debug\uic\ui_testVS.h
^testVS.qrc
C:\Users\Marcin\Desktop\cpp\testVS\testVS\x64\Debug\rcc\qrc_testVS.cpp
^testVS.h
C:\Users\Marcin\Desktop\cpp\testVS\testVS\x64\Debug\moc\moc_testVS.cpp
^testVS.ui
C:\Users\Marcin\Desktop\cpp\testVS\testVS\x64\Debug\uic\ui_testVS.h
^testVS.qrc
C:\Users\Marcin\Desktop\cpp\testVS\testVS\x64\Debug\rcc\qrc_testVS.cpp
^testVS.h
C:\Users\Marcin\Desktop\cpp\testVS\testVS\x64\Debug\moc\moc_testVS.cpp
^testVS.ui
C:\Users\Marcin\Desktop\cpp\testVS\testVS\x64\Debug\uic\ui_testVS.h
^testVS.qrc
C:\Users\Marcin\Desktop\cpp\testVS\testVS\x64\Debug\rcc\qrc_testVS.cpp
^testVS.h
C:\Users\Marcin\Desktop\cpp\testVS\testVS\x64\Debug\moc\moc_testVS.cpp
^testVS.ui
C:\Users\Marcin\Desktop\cpp\testVS\testVS\x64\Debug\uic\ui_testVS.h
^testVS.qrc
C:\Users\Marcin\Desktop\cpp\testVS\testVS\x64\Debug\rcc\qrc_testVS.cpp
^testVS.h
C:\Users\Marcin\Desktop\cpp\testVS\testVS\x64\Debug\moc\moc_testVS.cpp
^testVS.ui
C:\Users\Marcin\Desktop\cpp\testVS\testVS\x64\Debug\uic\ui_testVS.h
^testVS.qrc
C:\Users\Marcin\Desktop\cpp\testVS\testVS\x64\Debug\rcc\qrc_testVS.cpp
^testVS.h
C:\Users\Marcin\Desktop\cpp\testVS\testVS\x64\Debug\moc\moc_testVS.cpp
^testVS.ui
C:\Users\Marcin\Desktop\cpp\testVS\testVS\x64\Debug\uic\ui_testVS.h
^testVS.qrc
C:\Users\Marcin\Desktop\cpp\testVS\testVS\x64\Debug\rcc\qrc_testVS.cpp
^testVS.h
C:\Users\Marcin\Desktop\cpp\testVS\testVS\x64\Debug\moc\moc_testVS.cpp
^testVS.ui
C:\Users\Marcin\Desktop\cpp\testVS\testVS\x64\Debug\uic\ui_testVS.h
^testVS.qrc
C:\Users\Marcin\Desktop\cpp\testVS\testVS\x64\Debug\rcc\qrc_testVS.cpp
^testVS.h
C:\Users\Marcin\Desktop\cpp\testVS\testVS\x64\Debug\moc\moc_testVS.cpp
^testVS.ui
C:\Users\Marcin\Desktop\cpp\testVS\testVS\x64\Debug\uic\ui_testVS.h
^testVS.qrc
C:\Users\Marcin\Desktop\cpp\testVS\testVS\x64\Debug\rcc\qrc_testVS.cpp
^testVS.h
C:\Users\Marcin\Desktop\cpp\testVS\testVS\x64\Debug\moc\moc_testVS.cpp
^testVS.ui
C:\Users\Marcin\Desktop\cpp\testVS\testVS\x64\Debug\uic\ui_testVS.h
^testVS.qrc
C:\Users\Marcin\Desktop\cpp\testVS\testVS\x64\Debug\rcc\qrc_testVS.cpp
^testVS.h
C:\Users\Marcin\Desktop\cpp\testVS\testVS\x64\Debug\moc\moc_testVS.cpp
^testVS.ui
C:\Users\Marcin\Desktop\cpp\testVS\testVS\x64\Debug\uic\ui_testVS.h
^testVS.qrc
C:\Users\Marcin\Desktop\cpp\testVS\testVS\x64\Debug\rcc\qrc_testVS.cpp
^testVS.h
C:\Users\Marcin\Desktop\cpp\testVS\testVS\x64\Debug\moc\moc_testVS.cpp
^testVS.ui
C:\Users\Marcin\Desktop\cpp\testVS\testVS\x64\Debug\uic\ui_testVS.h
^testVS.qrc
C:\Users\Marcin\Desktop\cpp\testVS\testVS\x64\Debug\rcc\qrc_testVS.cpp
^testVS.h
C:\Users\Marcin\Desktop\cpp\testVS\testVS\x64\Debug\moc\moc_testVS.cpp
^testVS.ui
C:\Users\Marcin\Desktop\cpp\testVS\testVS\x64\Debug\uic\ui_testVS.h
^testVS.qrc
C:\Users\Marcin\Desktop\cpp\testVS\testVS\x64\Debug\rcc\qrc_testVS.cpp
^testVS.h
C:\Users\Marcin\Desktop\cpp\testVS\testVS\x64\Debug\moc\moc_testVS.cpp
^testVS.ui
C:\Users\Marcin\Desktop\cpp\testVS\testVS\x64\Debug\uic\ui_testVS.h
^testVS.qrc
C:\Users\Marcin\Desktop\cpp\testVS\testVS\x64\Debug\rcc\qrc_testVS.cpp
^testVS.h
C:\Users\Marcin\Desktop\cpp\testVS\testVS\x64\Debug\moc\moc_testVS.cpp
^testVS.ui
C:\Users\Marcin\Desktop\cpp\testVS\testVS\x64\Debug\uic\ui_testVS.h
^testVS.qrc
C:\Users\Marcin\Desktop\cpp\testVS\testVS\x64\Debug\rcc\qrc_testVS.cpp
^testVS.h
C:\Users\Marcin\Desktop\cpp\testVS\testVS\x64\Debug\moc\moc_testVS.cpp
^testVS.ui
C:\Users\Marcin\Desktop\cpp\testVS\testVS\x64\Debug\uic\ui_testVS.h
^testVS.qrc
C:\Users\Marcin\Desktop\cpp\testVS\testVS\x64\Debug\rcc\qrc_testVS.cpp
^testVS.h
C:\Users\Marcin\Desktop\cpp\testVS\testVS\x64\Debug\moc\moc_testVS.cpp
^testVS.ui
C:\Users\Marcin\Desktop\cpp\testVS\testVS\x64\Debug\uic\ui_testVS.h
^testVS.qrc
C:\Users\Marcin\Desktop\cpp\testVS\testVS\x64\Debug\rcc\qrc_testVS.cpp
^testVS.h
C:\Users\Marcin\Desktop\cpp\testVS\testVS\x64\Debug\moc\moc_testVS.cpp
^testVS.ui
C:\Users\Marcin\Desktop\cpp\testVS\testVS\x64\Debug\uic\ui_testVS.h
^testVS.qrc
C:\Users\Marcin\Desktop\cpp\testVS\testVS\x64\Debug\rcc\qrc_testVS.cpp
^testVS.h
C:\Users\Marcin\Desktop\cpp\testVS\testVS\x64\Debug\moc\moc_testVS.cpp
^testVS.ui
C:\Users\Marcin\Desktop\cpp\testVS\testVS\x64\Debug\uic\ui_testVS.h
^testVS.qrc
C:\Users\Marcin\Desktop\cpp\testVS\testVS\x64\Debug\rcc\qrc_testVS.cpp
^testVS.h
C:\Users\Marcin\Desktop\cpp\testVS\testVS\x64\Debug\moc\moc_testVS.cpp
^testVS.ui
C:\Users\Marcin\Desktop\cpp\testVS\testVS\x64\Debug\uic\ui_testVS.h
^testVS.qrc
C:\Users\Marcin\Desktop\cpp\testVS\testVS\x64\Debug\rcc\qrc_testVS.cpp
^testVS.h
C:\Users\Marcin\Desktop\cpp\testVS\testVS\x64\Debug\moc\moc_testVS.cpp
^testVS.ui
C:\Users\Marcin\Desktop\cpp\testVS\testVS\x64\Debug\uic\ui_testVS.h
^testVS.qrc
C:\Users\Marcin\Desktop\cpp\testVS\testVS\x64\Debug\rcc\qrc_testVS.cpp
^testVS.h
C:\Users\Marcin\Desktop\cpp\testVS\testVS\x64\Debug\moc\moc_testVS.cpp
^testVS.ui
C:\Users\Marcin\Desktop\cpp\testVS\testVS\x64\Debug\uic\ui_testVS.h
^testVS.qrc
C:\Users\Marcin\Desktop\cpp\testVS\testVS\x64\Debug\rcc\qrc_testVS.cpp
^testVS.h
C:\Users\Marcin\Desktop\cpp\testVS\testVS\x64\Debug\moc\moc_testVS.cpp
^testVS.ui
C:\Users\Marcin\Desktop\cpp\testVS\testVS\x64\Debug\uic\ui_testVS.h
^testVS.qrc
C:\Users\Marcin\Desktop\cpp\testVS\testVS\x64\Debug\rcc\qrc_testVS.cpp
^testVS.h
C:\Users\Marcin\Desktop\cpp\testVS\testVS\x64\Debug\moc\moc_testVS.cpp
^testVS.ui
C:\Users\Marcin\Desktop\cpp\testVS\testVS\x64\Debug\uic\ui_testVS.h
^testVS.qrc
C:\Users\Marcin\Desktop\cpp\testVS\testVS\x64\Debug\rcc\qrc_testVS.cpp
^testVS.h
C:\Users\Marcin\Desktop\cpp\testVS\testVS\x64\Debug\moc\moc_testVS.cpp
^testVS.ui
C:\Users\Marcin\Desktop\cpp\testVS\testVS\x64\Debug\uic\ui_testVS.h
^testVS.qrc
C:\Users\Marcin\Desktop\cpp\testVS\testVS\x64\Debug\rcc\qrc_testVS.cpp
^testVS.h
C:\Users\Marcin\Desktop\cpp\testVS\testVS\x64\Debug\moc\moc_testVS.cpp
^testVS.ui
C:\Users\Marcin\Desktop\cpp\testVS\testVS\x64\Debug\uic\ui_testVS.h
^testVS.qrc
C:\Users\Marcin\Desktop\cpp\testVS\testVS\x64\Debug\rcc\qrc_testVS.cpp
^testVS.h
C:\Users\Marcin\Desktop\cpp\testVS\testVS\x64\Debug\moc\moc_testVS.cpp
^testVS.ui
C:\Users\Marcin\Desktop\cpp\testVS\testVS\x64\Debug\uic\ui_testVS.h
^testVS.qrc
C:\Users\Marcin\Desktop\cpp\testVS\testVS\x64\Debug\rcc\qrc_testVS.cpp
^testVS.h
C:\Users\Marcin\Desktop\cpp\testVS\testVS\x64\Debug\moc\moc_testVS.cpp
^testVS.ui
C:\Users\Marcin\Desktop\cpp\testVS\testVS\x64\Debug\uic\ui_testVS.h
^testVS.qrc
C:\Users\Marcin\Desktop\cpp\testVS\testVS\x64\Debug\rcc\qrc_testVS.cpp
^testVS.h
C:\Users\Marcin\Desktop\cpp\testVS\testVS\x64\Debug\moc\moc_testVS.cpp
^testVS.ui
C:\Users\Marcin\Desktop\cpp\testVS\testVS\x64\Debug\uic\ui_testVS.h
^testVS.qrc
C:\Users\Marcin\Desktop\cpp\testVS\testVS\x64\Debug\rcc\qrc_testVS.cpp
^testVS.h
C:\Users\Marcin\Desktop\cpp\testVS\testVS\x64\Debug\moc\moc_testVS.cpp
^testVS.ui
C:\Users\Marcin\Desktop\cpp\testVS\testVS\x64\Debug\uic\ui_testVS.h
^testVS.qrc
C:\Users\Marcin\Desktop\cpp\testVS\testVS\x64\Debug\rcc\qrc_testVS.cpp
^testVS.h
C:\Users\Marcin\Desktop\cpp\testVS\testVS\x64\Debug\moc\moc_testVS.cpp
^testVS.ui
C:\Users\Marcin\Desktop\cpp\testVS\testVS\x64\Debug\uic\ui_testVS.h
^testVS.qrc
C:\Users\Marcin\Desktop\cpp\testVS\testVS\x64\Debug\rcc\qrc_testVS.cpp
^testVS.h
C:\Users\Marcin\Desktop\cpp\testVS\testVS\x64\Debug\moc\moc_testVS.cpp
^testVS.ui
C:\Users\Marcin\Desktop\cpp\testVS\testVS\x64\Debug\uic\ui_testVS.h
^testVS.qrc
C:\Users\Marcin\Desktop\cpp\testVS\testVS\x64\Debug\rcc\qrc_testVS.cpp
^testVS.h
C:\Users\Marcin\Desktop\cpp\testVS\testVS\x64\Debug\moc\moc_testVS.cpp
^testVS.ui
C:\Users\Marcin\Desktop\cpp\testVS\testVS\x64\Debug\uic\ui_testVS.h
^testVS.qrc
C:\Users\Marcin\Desktop\cpp\testVS\testVS\x64\Debug\rcc\qrc_testVS.cpp
^testVS.h
C:\Users\Marcin\Desktop\cpp\testVS\testVS\x64\Debug\moc\moc_testVS.cpp
^testVS.ui
C:\Users\Marcin\Desktop\cpp\testVS\testVS\x64\Debug\uic\ui_testVS.h
^testVS.qrc
C:\Users\Marcin\Desktop\cpp\testVS\testVS\x64\Debug\rcc\qrc_testVS.cpp
^testVS.h
C:\Users\Marcin\Desktop\cpp\testVS\testVS\x64\Debug\moc\moc_testVS.cpp
^testVS.ui
C:\Users\Marcin\Desktop\cpp\testVS\testVS\x64\Debug\uic\ui_testVS.h
^testVS.qrc
C:\Users\Marcin\Desktop\cpp\testVS\testVS\x64\Debug\rcc\qrc_testVS.cpp
^testVS.h
C:\Users\Marcin\Desktop\cpp\testVS\testVS\x64\Debug\moc\moc_testVS.cpp
^testVS.ui
C:\Users\Marcin\Desktop\cpp\testVS\testVS\x64\Debug\uic\ui_testVS.h
^testVS.qrc
C:\Users\Marcin\Desktop\cpp\testVS\testVS\x64\Debug\rcc\qrc_testVS.cpp
^testVS.h
C:\Users\Marcin\Desktop\cpp\testVS\testVS\x64\Debug\moc\moc_testVS.cpp
^testVS.ui
C:\Users\Marcin\Desktop\cpp\testVS\testVS\x64\Debug\uic\ui_testVS.h
^testVS.qrc
C:\Users\Marcin\Desktop\cpp\testVS\testVS\x64\Debug\rcc\qrc_testVS.cpp
^testVS.h
C:\Users\Marcin\Desktop\cpp\testVS\testVS\x64\Debug\moc\moc_testVS.cpp
^testVS.ui
C:\Users\Marcin\Desktop\cpp\testVS\testVS\x64\Debug\uic\ui_testVS.h
^testVS.qrc
C:\Users\Marcin\Desktop\cpp\testVS\testVS\x64\Debug\rcc\qrc_testVS.cpp
^testVS.h
C:\Users\Marcin\Desktop\cpp\testVS\testVS\x64\Debug\moc\moc_testVS.cpp
^testVS.ui
C:\Users\Marcin\Desktop\cpp\testVS\testVS\x64\Debug\uic\ui_testVS.h
^testVS.qrc
C:\Users\Marcin\Desktop\cpp\testVS\testVS\x64\Debug\rcc\qrc_testVS.cpp
^testVS.h
C:\Users\Marcin\Desktop\cpp\testVS\testVS\x64\Debug\moc\moc_testVS.cpp
^testVS.ui
C:\Users\Marcin\Desktop\Projects\testVS\testVS\x64\Debug\uic\ui_testVS.h
^testVS.h
C:\Users\Marcin\Desktop\Projects\testVS\testVS\x64\Debug\moc\moc_testVS.cpp
^testVS.qrc
C:\Users\Marcin\Desktop\Projects\testVS\testVS\x64\Debug\rcc\qrc_testVS.cpp
^testVS.ui
C:\Users\Marcin\Desktop\Projects\testVS\testVS\x64\Debug\uic\ui_testVS.h
^testVS.qrc
C:\Users\Marcin\Desktop\Projects\testVS\testVS\x64\Debug\rcc\qrc_testVS.cpp
^testVS.h
C:\Users\Marcin\Desktop\Projects\testVS\testVS\x64\Debug\moc\moc_testVS.cpp
